individual1.Rmd
…
dat%>% 
  select(happiness, marital)%>% 
  group_by(marital)%>%
  count(happiness)

## # A tibble: 36 x 3
## # Groups:   marital [6]
##    marital  happiness          n
##    <chr>    <chr>          <int>
##  1 Divorced Don't know         3
##  2 Divorced No answer         58
##  3 Divorced Not applicable   688
##  4 Divorced Not too happy   1450
##  5 Divorced Pretty happy    4683
##  6 Divorced Very happy      1497
##  7 Married  Don't know        12
##  8 Married  No answer        123
##  9 Married  Not applicable  2221
## 10 Married  Not too happy   2431
## #  with 26 more rows
…
dat%>%
  select(happiness, partyid, marital)%>%
  group_by(partyid, marital)%>%
  count(happiness)

## # A tibble: 271 x 4
## # Groups:   partyid, marital [58]
##    partyid      marital       happiness          n
##    <chr>        <chr>         <chr>          <int>
##  1 Don't know   Married       Pretty happy       2
##  2 Don't know   Married       Very happy         4
##  3 Don't know   Never married Not too happy      1
##  4 Don't know   Never married Very happy         1
##  5 Don't know   Separated     Not too happy      1
##  6 Don't know   Widowed       Not too happy      1
##  7 Don't know   Widowed       Pretty happy       1
##  8 Ind,near dem Divorced      No answer          3
##  9 Ind,near dem Divorced      Not applicable    74
## 10 Ind,near dem Divorced      Not too happy    200
## #  with 261 more rows
…
dat%>% 
  select(educ, marital)%>% 
  filter(educ < 21)%>%
  group_by(marital)%>%
  count(educ)

## # A tibble: 113 x 3
## # Groups:   marital [6]
##    marital   educ     n
##    <chr>    <dbl> <int>
##  1 Divorced     0     6
##  2 Divorced     1     1
##  3 Divorced     2    17
##  4 Divorced     3    24
##  5 Divorced     4    25
##  6 Divorced     5    27
##  7 Divorced     6    61
##  8 Divorced     7    80
##  9 Divorced     8   245
## 10 Divorced     9   276
## #  with 103 more rows
…
