team.Rmd
…
dat%>% 
  select(happiness, marital)%>% 
  group_by(marital)%>%
  count(happiness)

## # A tibble: 36 x 3
## # Groups:   marital [6]
##    marital  happiness          n
##    <chr>    <chr>          <int>
##  1 Divorced Don't know         3
##  2 Divorced No answer         58
##  3 Divorced Not applicable   688
##  4 Divorced Not too happy   1450
##  5 Divorced Pretty happy    4683
##  6 Divorced Very happy      1497
##  7 Married  Don't know        12
##  8 Married  No answer        123
##  9 Married  Not applicable  2221
## 10 Married  Not too happy   2431
## #  with 26 more rows
…
dat%>%
  select(happiness, sex, marital)%>%
  group_by(sex, marital)%>%
  count(happiness)

## # A tibble: 68 x 4
## # Groups:   sex, marital [12]
##    sex    marital  happiness          n
##    <chr>  <chr>    <chr>          <int>
##  1 Female Divorced No answer         40
##  2 Female Divorced Not applicable   390
##  3 Female Divorced Not too happy    843
##  4 Female Divorced Pretty happy    2855
##  5 Female Divorced Very happy       950
##  6 Female Married  Don't know         6
##  7 Female Married  No answer         67
##  8 Female Married  Not applicable  1184
##  9 Female Married  Not too happy   1208
## 10 Female Married  Pretty happy    8511
## #  with 58 more rows
